%YAML 1.1
%TAG !u! tag:unity3d.com,2011:
--- !u!1045 &1
EditorBuildSettings:
  m_ObjectHideFlags: 0
  serializedVersion: 2
  m_Scenes:
  - enabled: 1
    path: Assets/Scenes/Preloader.unity
    guid: 7178a0c47e8d447428f0882f7728dcd1
  - enabled: 1
    path: Assets/Scenes/MainMenu.unity
    guid: 2cda990e2423bbf4892e6590ba056729
  - enabled: 1
    path: Assets/Scenes/Level1.unity
    guid: e96ae6d668584f24f8fc47ed100f1f1a
  - enabled: 1
    path: Assets/Scenes/GameOverLevel.unity
    guid: dd7ff211a5803634f9cee94b886465b7
  - enabled: 1
    path: Assets/Scenes/WinLevel.unity
    guid: 075ca207845aee64f94f2b8cb45b1483
  m_configObjects: {}
